{
  "api_endpoints": {
    "product_search": {
      "endpoint": "GET /api/search/products?q=laptop",
      "description": "Live product search with autocomplete",
      "sample_responses": {
        "with_results": {
          "query": "laptop",
          "data": [
            {
              "id": 101,
              "name": "Dell XPS 15 Laptop",
              "price": "1299.99",
              "image": "https://picsum.photos/seed/laptop-xps/50",
              "url": "http://localhost:8000/products/101"
            },
            {
              "id": 102,
              "name": "MacBook Pro 14-inch",
              "price": "1999.00",
              "image": "https://picsum.photos/seed/macbook/50",
              "url": "http://localhost:8000/products/102"
            },
            {
              "id": 103,
              "name": "HP Pavilion Laptop",
              "price": "699.99",
              "image": "https://picsum.photos/seed/hp-laptop/50",
              "url": "http://localhost:8000/products/103"
            }
          ]
        },
        "empty_results": {
          "query": "xyz123",
          "data": []
        }
      }
    },
    "product_list": {
      "endpoint": "GET /products",
      "description": "Product listing page with pagination",
      "sample_response": {
        "data": [
          {
            "id": 1,
            "name": "Wireless Bluetooth Headphones",
            "slug": "wireless-bluetooth-headphones",
            "price": "79.99",
            "sale_price": "59.99",
            "image_url": "https://picsum.photos/seed/headphones/600/400",
            "is_featured": true,
            "stock": 45,
            "rating": 4.5,
            "reviews_count": 128
          },
          {
            "id": 2,
            "name": "Smart Watch Fitness Tracker",
            "slug": "smart-watch-fitness-tracker",
            "price": "149.99",
            "sale_price": null,
            "image_url": "https://picsum.photos/seed/smartwatch/600/400",
            "is_featured": true,
            "stock": 32,
            "rating": 4.7,
            "reviews_count": 89
          },
          {
            "id": 3,
            "name": "USB-C Fast Charging Cable",
            "slug": "usb-c-fast-charging-cable",
            "price": "19.99",
            "sale_price": "14.99",
            "image_url": "https://picsum.photos/seed/cable/600/400",
            "is_featured": false,
            "stock": 120,
            "rating": 4.3,
            "reviews_count": 256
          }
        ],
        "pagination": {
          "current_page": 1,
          "per_page": 12,
          "total": 148,
          "last_page": 13
        }
      }
    },
    "product_detail": {
      "endpoint": "GET /products/1",
      "description": "Single product details",
      "sample_response": {
        "id": 1,
        "name": "Wireless Bluetooth Headphones",
        "slug": "wireless-bluetooth-headphones",
        "sku": "WBH-001",
        "description": "Premium wireless headphones with active noise cancellation, 30-hour battery life, and crystal-clear sound quality. Perfect for music lovers and professionals.",
        "price": "79.99",
        "sale_price": "59.99",
        "cost_price": "35.00",
        "stock": 45,
        "is_featured": true,
        "is_active": true,
        "image_url": "https://picsum.photos/seed/headphones/600/400",
        "image_urls": [
          "https://picsum.photos/seed/headphones-1/600/400",
          "https://picsum.photos/seed/headphones-2/600/400",
          "https://picsum.photos/seed/headphones-3/600/400"
        ],
        "specifications": {
          "Battery Life": "30 hours",
          "Connectivity": "Bluetooth 5.0",
          "Noise Cancellation": "Active ANC",
          "Weight": "250g",
          "Colors": "Black, Silver, Blue"
        },
        "category": {
          "id": 1,
          "name": "Audio Devices",
          "slug": "audio-devices"
        },
        "reviews": {
          "average_rating": 4.5,
          "total_reviews": 128,
          "ratings_breakdown": {
            "5": 75,
            "4": 35,
            "3": 12,
            "2": 4,
            "1": 2
          }
        },
        "related_products": [
          {
            "id": 2,
            "name": "Bluetooth Speaker",
            "price": "49.99",
            "image_url": "https://picsum.photos/seed/speaker/200/200"
          }
        ]
      }
    },
    "admin_products": {
      "endpoint": "GET /admin/products",
      "description": "Admin product management",
      "sample_response": {
        "products": [
          {
            "id": 1,
            "name": "Wireless Bluetooth Headphones",
            "sku": "WBH-001",
            "price": "79.99",
            "stock": 45,
            "is_active": true,
            "created_at": "2025-10-08T14:52:38Z",
            "updated_at": "2025-10-08T16:30:00Z"
          }
        ],
        "stats": {
          "total_products": 148,
          "active_products": 142,
          "out_of_stock": 6,
          "featured_products": 12
        }
      }
    },
    "admin_orders": {
      "endpoint": "GET /orders",
      "description": "Order management",
      "sample_response": {
        "orders": [
          {
            "id": "ORD-20251009-001",
            "customer_name": "John Doe",
            "customer_email": "john@example.com",
            "total": "179.97",
            "status": "pending",
            "payment_status": "paid",
            "items_count": 3,
            "created_at": "2025-10-09T10:30:00Z"
          },
          {
            "id": "ORD-20251009-002",
            "customer_name": "Jane Smith",
            "customer_email": "jane@example.com",
            "total": "59.99",
            "status": "processing",
            "payment_status": "paid",
            "items_count": 1,
            "created_at": "2025-10-09T11:15:00Z"
          },
          {
            "id": "ORD-20251009-003",
            "customer_name": "Bob Johnson",
            "customer_email": "bob@example.com",
            "total": "299.95",
            "status": "shipped",
            "payment_status": "paid",
            "items_count": 2,
            "created_at": "2025-10-09T09:45:00Z",
            "tracking_number": "TRK123456789"
          }
        ],
        "stats": {
          "total_orders": 47,
          "pending": 12,
          "processing": 8,
          "shipped": 15,
          "delivered": 10,
          "cancelled": 2
        }
      }
    },
    "admin_customers": {
      "endpoint": "GET /customers",
      "description": "Customer management",
      "sample_response": {
        "customers": [
          {
            "id": 1,
            "name": "John Doe",
            "email": "john@example.com",
            "phone": "+1-555-0123",
            "total_orders": 5,
            "total_spent": "523.45",
            "created_at": "2025-09-15T08:00:00Z"
          },
          {
            "id": 2,
            "name": "Jane Smith",
            "email": "jane@example.com",
            "phone": "+1-555-0124",
            "total_orders": 3,
            "total_spent": "234.99",
            "created_at": "2025-09-20T10:30:00Z"
          }
        ],
        "stats": {
          "total_customers": 87,
          "new_this_month": 12,
          "active_customers": 45,
          "lifetime_value_avg": "342.67"
        }
      }
    },
    "admin_analytics": {
      "endpoint": "GET /analytics",
      "description": "Business analytics and metrics",
      "sample_response": {
        "revenue": {
          "today": "1,245.67",
          "yesterday": "987.34",
          "this_week": "8,234.56",
          "this_month": "34,567.89",
          "this_year": "234,567.00",
          "growth_rate": 12.5
        },
        "orders": {
          "today": 15,
          "yesterday": 12,
          "this_week": 98,
          "this_month": 432,
          "this_year": 3456,
          "avg_order_value": "79.99"
        },
        "products": {
          "total": 148,
          "active": 142,
          "out_of_stock": 6,
          "low_stock": 15,
          "best_seller": {
            "id": 23,
            "name": "Smart Watch",
            "sales": 145
          }
        },
        "customers": {
          "total": 87,
          "new_this_month": 12,
          "returning_rate": "67%",
          "avg_lifetime_value": "342.67"
        }
      }
    },
    "admin_reports": {
      "endpoint": "GET /reports",
      "description": "Detailed business reports",
      "sample_response": {
        "sales_report": {
          "period": "last_30_days",
          "total_sales": "34,567.89",
          "total_orders": 432,
          "avg_order_value": "79.99",
          "daily_breakdown": [
            {
              "date": "2025-10-09",
              "sales": "1,245.67",
              "orders": 15
            },
            {
              "date": "2025-10-08",
              "sales": "987.34",
              "orders": 12
            }
          ]
        },
        "product_report": {
          "top_products": [
            {
              "id": 23,
              "name": "Smart Watch",
              "sales": 145,
              "revenue": "21,748.55"
            },
            {
              "id": 45,
              "name": "Wireless Earbuds",
              "sales": 123,
              "revenue": "9,840.77"
            }
          ]
        },
        "inventory_report": {
          "low_stock_items": 15,
          "out_of_stock_items": 6,
          "overstocked_items": 8,
          "total_inventory_value": "156,789.00"
        }
      }
    }
  },
  "seed_data": {
    "products": {
      "description": "Sample products for testing",
      "count": 148,
      "categories": [
        {
          "name": "Laptops",
          "count": 24,
          "samples": [
            "Dell XPS 15",
            "MacBook Pro 14-inch",
            "HP Pavilion Gaming Laptop",
            "Lenovo ThinkPad X1"
          ]
        },
        {
          "name": "Smartphones",
          "count": 32,
          "samples": [
            "iPhone 15 Pro",
            "Samsung Galaxy S24",
            "Google Pixel 8",
            "OnePlus 12"
          ]
        },
        {
          "name": "Audio",
          "count": 28,
          "samples": [
            "Sony WH-1000XM5",
            "AirPods Pro",
            "Bose QuietComfort 45",
            "JBL Flip 6 Speaker"
          ]
        },
        {
          "name": "Wearables",
          "count": 18,
          "samples": [
            "Apple Watch Series 9",
            "Fitbit Charge 6",
            "Garmin Fenix 7",
            "Samsung Galaxy Watch 6"
          ]
        },
        {
          "name": "Accessories",
          "count": 35,
          "samples": [
            "USB-C Cable",
            "Wireless Charger",
            "Phone Case",
            "Screen Protector"
          ]
        },
        {
          "name": "Smart Home",
          "count": 11,
          "samples": [
            "Amazon Echo Dot",
            "Google Nest Hub",
            "Philips Hue Bulbs",
            "Ring Doorbell"
          ]
        }
      ]
    },
    "users": {
      "description": "Test users for authentication",
      "count": 5,
      "users": [
        {
          "email": "test@example.com",
          "password": "password",
          "role": "admin",
          "name": "Test Admin"
        },
        {
          "email": "john@example.com",
          "password": "password",
          "role": "customer",
          "name": "John Doe"
        },
        {
          "email": "jane@example.com",
          "password": "password",
          "role": "customer",
          "name": "Jane Smith"
        },
        {
          "email": "bob@example.com",
          "password": "password",
          "role": "customer",
          "name": "Bob Johnson"
        },
        {
          "email": "alice@example.com",
          "password": "password",
          "role": "customer",
          "name": "Alice Williams"
        }
      ]
    },
    "orders": {
      "description": "Sample orders for testing",
      "recommended_count": 50,
      "status_distribution": {
        "pending": 12,
        "processing": 8,
        "shipped": 15,
        "delivered": 10,
        "cancelled": 2,
        "refunded": 3
      },
      "sample_order": {
        "order_id": "ORD-20251009-001",
        "customer": {
          "name": "John Doe",
          "email": "john@example.com",
          "phone": "+1-555-0123"
        },
        "items": [
          {
            "product_id": 1,
            "product_name": "Wireless Bluetooth Headphones",
            "quantity": 2,
            "price": "59.99",
            "subtotal": "119.98"
          },
          {
            "product_id": 3,
            "product_name": "USB-C Cable",
            "quantity": 1,
            "price": "14.99",
            "subtotal": "14.99"
          }
        ],
        "totals": {
          "subtotal": "134.97",
          "tax": "13.50",
          "shipping": "5.00",
          "discount": "0.00",
          "total": "153.47"
        },
        "payment": {
          "method": "credit_card",
          "status": "paid",
          "transaction_id": "TXN123456789"
        },
        "shipping": {
          "address": "123 Main St, Apt 4B",
          "city": "New York",
          "state": "NY",
          "zip": "10001",
          "country": "USA"
        },
        "status": "processing",
        "created_at": "2025-10-09T10:30:00Z"
      }
    }
  },
  "test_scenarios": {
    "customer_journey": {
      "description": "Complete customer purchase flow",
      "steps": [
        {
          "step": 1,
          "action": "Visit homepage",
          "url": "http://localhost:8000/",
          "expected": "See hero banner, search, categories"
        },
        {
          "step": 2,
          "action": "Search for product",
          "url": "http://localhost:8000/api/search/products?q=laptop",
          "expected": "Get JSON array of matching products"
        },
        {
          "step": 3,
          "action": "View product details",
          "url": "http://localhost:8000/products/1",
          "expected": "See full product information"
        },
        {
          "step": 4,
          "action": "Register account",
          "url": "http://localhost:8000/register",
          "expected": "Create new customer account"
        },
        {
          "step": 5,
          "action": "Add to cart",
          "url": "POST /cart/add",
          "expected": "Product added to session cart"
        },
        {
          "step": 6,
          "action": "Checkout",
          "url": "/checkout",
          "expected": "Order created, payment processed"
        }
      ]
    },
    "admin_workflow": {
      "description": "Admin product management flow",
      "steps": [
        {
          "step": 1,
          "action": "Login to admin",
          "url": "http://localhost:8001/login",
          "credentials": "test@example.com / password"
        },
        {
          "step": 2,
          "action": "View dashboard",
          "url": "http://localhost:8001/dashboard",
          "expected": "See sales metrics, charts"
        },
        {
          "step": 3,
          "action": "Manage products",
          "url": "http://localhost:8001/admin/products",
          "expected": "Product list with edit/delete"
        },
        {
          "step": 4,
          "action": "Bulk upload",
          "url": "http://localhost:8001/admin/products/enhanced",
          "expected": "Upload multiple products"
        },
        {
          "step": 5,
          "action": "View deployment info",
          "url": "http://localhost:8001/deployment",
          "expected": "FTP, DB, GitLab details"
        },
        {
          "step": 6,
          "action": "Generate reports",
          "url": "http://localhost:8001/reports",
          "expected": "Sales, inventory, customer reports"
        }
      ]
    }
  }
}
